{
  "status": 1,
  "name": "sf:INVALID_OPERATION",
  "message": "INVALID_OPERATION: runTests can only be used with a testLevel of RunSpecifiedTests",
  "exitCode": 1,
  "commandName": "SourceDeployCommand",
  "stack": "sf:INVALID_OPERATION: INVALID_OPERATION: runTests can only be used with a testLevel of RunSpecifiedTests\n    at module.exports.HttpApi.getError (C:\\Program Files\\sfdx\\client\\node_modules\\jsforce\\lib\\http-api.js:250:13)\n    at C:\\Program Files\\sfdx\\client\\node_modules\\jsforce\\lib\\http-api.js:95:22\n    at tryCallOne (C:\\Program Files\\sfdx\\client\\node_modules\\promise\\lib\\core.js:37:12)\n    at C:\\Program Files\\sfdx\\client\\node_modules\\promise\\lib\\core.js:123:15\n    at flush (C:\\Program Files\\sfdx\\client\\node_modules\\asap\\raw.js:50:29)\n    at processTicksAndRejections (internal/process/task_queues.js:77:11)\nOuter stack:\n    at Function.wrap (C:\\Program Files\\sfdx\\client\\node_modules\\@salesforce\\core\\lib\\sfdxError.js:171:27)\n    at SourceDeployCommand.catch (C:\\Program Files\\sfdx\\client\\node_modules\\salesforce-alm\\dist\\ToolbeltCommand.js:253:46)\n    at async SourceDeployCommand._run (C:\\Program Files\\sfdx\\client\\node_modules\\@salesforce\\command\\lib\\sfdxCommand.js:85:13)\n    at async Config.runCommand (C:\\Program Files\\sfdx\\client\\node_modules\\@oclif\\config\\lib\\config.js:173:24)\n    at async Main.run (C:\\Program Files\\sfdx\\client\\node_modules\\@oclif\\command\\lib\\main.js:27:9)\n    at async Main._run (C:\\Program Files\\sfdx\\client\\node_modules\\@oclif\\command\\lib\\command.js:43:20)\n    at async Object.run (C:\\Program Files\\sfdx\\client\\dist\\cli.js:114:21)",
  "warnings": []
}
