{
    "status": 1,
    "name": "DevhubNotAuthorized",
    "message": "We couldn't create this sandbox or scratch org because the associated Dev Hub isn't authorized. Authorize the Dev Hub and try again.",
    "exitCode": 1,
    "commandName": "OrgCreateCommand",
    "stack": "DevhubNotAuthorized: We couldn't create this sandbox or scratch org because the associated Dev Hub isn't authorized. Authorize the Dev Hub and try again.\n    at Function.create (C:\\Program Files\\sfdx\\client\\node_modules\\@salesforce\\core\\lib\\sfdxError.js:160:16)\n    at OrgCreateCommand.resolveHubOrgContext (C:\\Program Files\\sfdx\\client\\node_modules\\salesforce-alm\\dist\\commands\\force\\org\\create.js:52:40)\n    at async OrgCreateCommand.run (C:\\Program Files\\sfdx\\client\\node_modules\\salesforce-alm\\dist\\commands\\force\\org\\create.js:124:29)\n    at async OrgCreateCommand._run (C:\\Program Files\\sfdx\\client\\node_modules\\@salesforce\\command\\lib\\sfdxCommand.js:81:40)\n    at async Config.runCommand (C:\\Program Files\\sfdx\\client\\node_modules\\@oclif\\config\\lib\\config.js:173:24)\n    at async Main.run (C:\\Program Files\\sfdx\\client\\node_modules\\@oclif\\command\\lib\\main.js:27:9)\n    at async Main._run (C:\\Program Files\\sfdx\\client\\node_modules\\@oclif\\command\\lib\\command.js:43:20)\n    at async Object.run (C:\\Program Files\\sfdx\\client\\dist\\cli.js:114:21)",
    "warnings": []
  }
  ==== Username already used for SO
  {
    "status": 1,
    "name": "RemoteOrgSignupFailed",
    "message": "The username provided to the org:create command is already in use. Run 'force:org:list --clean' to remove stale org authentications or create the org with a different username.",
    "exitCode": 1,
    "commandName": "OrgCreateCommand",
    "stack": "RemoteOrgSignupFailed: The username provided to the org:create command is already in use. Run 'force:org:list --clean' to remove stale org authentications or create the org with a different username.\n    at signup.retrieveScratchOrgInfo (C:\\Program Files\\sfdx\\client\\node_modules\\salesforce-alm\\dist\\lib\\org\\scratchOrgInfoApi.js:332:21)\n    at async OrgCreateCommand.signupOrgWithStreaming (C:\\Program Files\\sfdx\\client\\node_modules\\salesforce-alm\\dist\\lib\\org\\scratchOrgCreateCommand.js:229:37)\n    at async OrgCreateCommand.execute (C:\\Program Files\\sfdx\\client\\node_modules\\salesforce-alm\\dist\\lib\\org\\scratchOrgCreateCommand.js:316:32)\n    at async OrgCreateCommand.execLegacyCommand (C:\\Program Files\\sfdx\\client\\node_modules\\salesforce-alm\\dist\\ToolbeltCommand.js:149:29)\n    at async OrgCreateCommand._run (C:\\Program Files\\sfdx\\client\\node_modules\\@salesforce\\command\\lib\\sfdxCommand.js:81:40)\n    at async Config.runCommand (C:\\Program Files\\sfdx\\client\\node_modules\\@oclif\\config\\lib\\config.js:173:24)\n    at async Main.run (C:\\Program Files\\sfdx\\client\\node_modules\\@oclif\\command\\lib\\main.js:27:9)\n    at async Main._run (C:\\Program Files\\sfdx\\client\\node_modules\\@oclif\\command\\lib\\command.js:43:20)\n    at async Object.run (C:\\Program Files\\sfdx\\client\\dist\\cli.js:114:21)",
    "warnings": []
  }